1.433744543697716836e+02, 6.068846237009609013e+02
1.077615031690473643e+03, 6.058980972201576378e+02
1.433744543697716836e+02, 7.021421814397876915e+01
1.552127721394109585e+02, 6.049115707393543744e+02
1.571858251010174854e+02, 5.457199818911577722e+02
1.719837223130666644e+02, 4.835688136005513797e+02
1.976334108139518548e+02, 4.214176453099450441e+02
2.390675230076893740e+02, 3.533473181345189573e+02
2.834612146438367972e+02, 3.040209940943551601e+02
3.357471181264104416e+02, 2.606138289390110003e+02
4.018443923402298879e+02, 2.241123491492897983e+02
4.630090341500330169e+02, 1.945165547251915541e+02
5.300928348446557266e+02, 1.737994986283227945e+02
5.942170560968686459e+02, 1.580150749354703521e+02
6.613008567914913556e+02, 1.471632836466343406e+02
7.175328661972781674e+02, 1.392710718002081194e+02
8.191450937200155522e+02, 1.402575982810113828e+02
9.020133181074905906e+02, 1.382845453194048559e+02
9.819219630525559523e+02, 1.422306512426179097e+02
1.071695872805653835e+03, 1.392710718002081194e+02
